[gd_resource type="ShaderMaterial" load_steps=2 format=2]

[sub_resource type="Shader" id=12]

code = "shader_type canvas_item;
render_mode blend_mix;

uniform float outLineSize  = 0.02;
uniform vec4  outLineColor = vec4(1.0, 1.0, 1.0, 1.0);

uniform bool enable_shader = false;

void fragment()
{
    vec4 tcol = texture(TEXTURE, UV);
    
    if (enable_shader && tcol.a == 0.0)
    {
        if (texture(TEXTURE, UV + vec2(0.0,          outLineSize)).a  != 0.0 ||
            texture(TEXTURE, UV + vec2(0.0,         -outLineSize)).a  != 0.0 ||
            texture(TEXTURE, UV + vec2(outLineSize,  0.0)).a          != 0.0 ||
            texture(TEXTURE, UV + vec2(-outLineSize, 0.0)).a          != 0.0 ||
            texture(TEXTURE, UV + vec2(-outLineSize, outLineSize)).a  != 0.0 ||
            texture(TEXTURE, UV + vec2(-outLineSize, -outLineSize)).a != 0.0 ||
            texture(TEXTURE, UV + vec2(outLineSize,  outLineSize)).a  != 0.0 ||
            texture(TEXTURE, UV + vec2(outLineSize,  -outLineSize)).a != 0.0) 
            tcol = outLineColor;
    }
    
    COLOR = tcol;
}"

[resource]

render_priority = 0
shader = SubResource( 12 )
shader_param/outLineSize = 0.02
shader_param/outLineColor = Plane( 1, 1, 1, 1 )
shader_param/enable_shader = null
_sections_unfolded = [ "shader_param" ]

