{
    "name" : "Harvest Food",
    "scene_path" : "res://plugins/minigames/harvest_food/minigame.tscn",
    "type" : ["FFA", "2v2", "Duel"],
    "image_path" : "res://plugins/minigames/harvest_food/screenshot.png",
    
    "description" : {
	"en" : "The players select a fruit until the time is up. Every player that has selected a healthy fruit gets a point. The catch is: One of those fruits is rotten and gives no points.\n\nThe player that gets the most non-rotten plants wins!"
    },
    
    "used_controls" : {
	"action1" : {
	    "en" : "Jump"
	}
    }
}
