[gd_scene load_steps=5 format=2]

[ext_resource path="res://plugins/minigames/kernel_compiling/player_kernel_compiling.gd" type="Script" id=1]
[ext_resource path="res://plugins/minigames/kernel_compiling/battery/battery.tscn" type="PackedScene" id=2]
[ext_resource path="res://assets/models/screen/screen.escn" type="PackedScene" id=3]
[ext_resource path="res://scenes/control_view/control_view.tscn" type="PackedScene" id=4]

[node name="Player" type="Spatial" index="0" groups=[
"players",
]]

script = ExtResource( 1 )

[node name="Model" type="Spatial" parent="." index="0"]

[node name="PenalityTimer" type="Timer" parent="." index="1"]

process_mode = 1
wait_time = 0.5
one_shot = true
autostart = false

[node name="Battery" parent="." index="2" instance=ExtResource( 2 )]

transform = Transform( 1, 0, 0, 0, 1, 0, 0, 0, 1, 0, 0.15, 0.5 )

[node name="Screen" parent="." index="3" instance=ExtResource( 3 )]

transform = Transform( 0.25, 0, 0, 0, 0.25, 0, 0, 0, 0.25, 0, 1.38, -1 )
_sections_unfolded = [ "Transform" ]

[node name="ControlView" parent="Screen" index="1" instance=ExtResource( 4 )]

transform = Transform( 1, 0, 0, 0, -1.62921e-07, -1, 0, 1, -1.62921e-07, 0, 0, 0.1 )
_sections_unfolded = [ "Transform" ]

[connection signal="timeout" from="PenalityTimer" to="." method="_on_PenalityTimer_timeout"]


